{
    "version": "11",
    "common": {
        "api": {
            "url": "http://89.203.165.147:8080/igx/rest",
            "authorization": 0
        },
        "title": "ABRA (Addinol) CRM"
    },
    "notifications": {
        "proxy": "http://gcm-http.hera.abra-solutions.eu/index.php",
        "topic": "notifications-designtrade"
    },
    "crm": {
        "app": {
          "languages": [
            {
              "id": "cs",
              "value": "Česky"
            },
            {
              "id": "de",
              "value": "Deutch"
            },
            {
              "id": "en",
              "value": "English"
            }
          ],
          "language": "cs",
          "extension": {
            "name": "Designtrade",
            "model": "Abracrm.Mobi.Models.Extensions.Designtrade"
          }
        },
        "crmActivity": {
            "filters": {
                "activityType": [
                    "2200000101"
                ]
            },
            "statuses": [
                {
                    "id": 0,
                    "value": "Neřešeno"
                },
                {
                    "id": 1,
                    "value": "V procesu"
                },
                {
                    "id": 2,
                    "value": "Uzavřeno"
                }
            ],
            "default": {
                "status": 1
            },
            "crmActivityQueueKinds": [
                {
                    "code": "NOZ",
                    "id": "7200000101",
                    "name": "Nový zákazník",
                    "kind": 1
                },
                {
                    "code": "NOP",
                    "id": "8200000101",
                    "name": "Nová prodejna",
                    "kind": 1
                },
                {
                    "code": "NOK",
                    "id": "9200000101",
                    "name": "Nová kolekce",
                    "kind": 1
                },
                {
                    "code": "ZMK",
                    "id": "A200000101",
                    "name": "Změna kolekce",
                    "kind": 1
                },
                {                                   // http://89.203.165.147:8080/igx/rest/crmactivityqueues?fields=id,code,name
                    "code": "JED",
                    "id": "1000000101",
                    "name": "Jednání",
                    "kind": 2
                },
                {
                    "code": "INT",
                    "id": "5000000101",
                    "name": "Interní jednání",
                    "kind": 2
                }
            ]
        },
        "opportunity": {
            "default": {
                "activityTypeId": "2200000101",
                "activityAreaId": "1100000101"
            },
            "filters": {
                "crmActivityType": [      // http://89.203.165.147:8080/igx/rest/crmactivitytypes?fields=id,code,name
                    {
                        "key": "code",
                        "value": "PRI"
                    }
                ],
                "crmActivityProcess": [   // http://89.203.165.147:8080/igx/rest/crmactivityprocesses
                    {
                        "key": "code",
                        "value": "000"
                    }
                ],
                "crmActivityQueue": [     // http://89.203.165.147:8080/igx/rest/crmactivityqueues?fields=id,code,name
                    {
                        "key": "code",
                        "value": "JED"
                    },
                    {
                        "key": "code",
                        "value": "HM"
                    },
                    {
                        "key": "code",
                        "value": "DOV"
                    },
                    {
                        "key": "code",
                        "value": "VOL"
                    },
                    {
                      "key": "code",
                      "value": "INT"
                    }
                ],
                "crmActivityArea": [      // http://89.203.165.147:8080/igx/rest/crmactivityareas
                    {
                        "key": "code",
                        "value": "SPOL"
                    }
                ],
                "division": [

                ],
                "product": [
                    {
                        "key": "hidden",
                        "value": false
                    }
                ]
            }
        },
        "opportunities": {
            "filters": [
                {
                    "key": "activitytype_id.code", // http://89.203.165.147:8080/igx/rest/crmactivitytypes
                    "value": "PRI",
                    "operator": 0
                }
            ]
        },
        "communications": {
            "filters": [
                {
                    "key": "activitytype_id.code",  // // http://89.203.165.147:8080/igx/rest/crmactivitytypes
                    "value": "KAL",
                    "operator": 0
                }
            ],
            "statuses": [
                {
                    "key": 0,
                    "value": "Naplánované",
                    "operator": 0
                },
                {
                    "key": 1,
                    "value": "Potvrzené",
                    "operator": 0
                },
                {
                    "key": 2,
                    "value": "Uzavřené",
                    "operator": 0
                }
            ],
            "timeView": [
                {
                    "id": 1,
                    "titleI18n": "communications.filters.today"
                },
                {
                    "id": 2,
                    "titleI18n": "communications.filters.this-week"
                },
                {
                    "id": 3,
                    "titleI18n": "communications.filters.next"
                },
                {
                    "id": 4,
                    "titleI18n": "communications.filters.all"
                }
            ]
        },
        "communication": {
            "default": {
                "activityAreaId": "1000000101",  // http://89.203.165.147:8080/igx/rest/crmactivityareas
                "activityTypeId": "1000000101",  // http://89.203.165.147:8080/igx/rest/crmactivitytypes
                "status": 0,
                "statusClosed": 2
            }
        },
        "holidays": {
            "filters": [
                {
                    "key": "actqueue_id.code",
                    "value": "DO",
                    "operator": 0
                }
            ]
        },
        "tasks": {
            "filters": [
                {
                    "key": "activitytype_id.code",
                    "value": "JUKOL,VUKOL",
                    "operator": 1
                }
            ],
            "statuses": [
                {
                    "key": 0,
                    "value": "Neřešeno",
                    "operator": 0
                },
                {
                    "key": 1,
                    "value": "Potvrzené",
                    "operator": 0
                },
                {
                    "key": 2,
                    "value": "Uzavřeno",
                    "operator": 0
                }
            ],
            "timeView": [
                {
                    "id": 1,
                    "titleI18n": "communications.filters.today"
                },
                {
                    "id": 2,
                    "titleI18n": "communications.filters.this-week"
                },
                {
                    "id": 3,
                    "titleI18n": "communications.filters.next"
                },
                {
                    "id": 4,
                    "titleI18n": "communications.filters.all"
                }
            ]
        },
        "task": {
            "default": {
                "activityAreaId": "1000000101",
                "activityTypeId": "3S00000101",
                "actQueueId": "2V00000101",
                "status": 0
            },
            "filters": {
            }
        },
        "firms": {
            "filters": [
                {
                    "key": "hidden",
                    "value": false,
                    "operator": 0
                },
                {
                    "key": "firm_id",
                    "value": null,
                    "operator": 0
                }
            ]
        },
        "firm": {
        },
        "basket": {
            "default": {
                "periodId": "2K00000101",               // http://89.203.165.147:8080/igx/rest/periods
                "transportationTypeId": "00000P1000",
                "paymentTypeId": "1000000101",
                "busOrderId": "",
                "busTransactionId": "",
                "busProjectId": "",
                "divisionId": "1100000101",             // http://89.203.165.147:8080/igx/rest/divisions
                "docQueueId": "1300000101"
            },
            "filters": {
                "docQueues": [
                    {
                        "key": "documenttype",
                        "value": "RO",
                        "operator": 0
                    }
                ]
            },
            "item": {
                "filters": {
                    "divisions": [
                    ]
                }
            },
            "isNote": false,
            "isDivision": true,
            "isBusProject": false,
            "isBusTransaction": false,
            "isBusOrder": true
        },
        "receivedOrders": {
            "statuses": [
                {
                    "id": 0,
                    "titleI18n": "receivedOrders.filters.all"
                },
                {
                    "id": 1,
                    "titleI18n": "receivedOrders.filters.delivered"
                },
                {
                    "id": 2,
                    "titleI18n": "receivedOrders.filters.undelivered"
                }
            ]
        },
        "storeCards": {
            "default": {
                "storeId": "1000000101"     // http://89.203.165.147:8080/igx/rest/stores
            }
        },
        "receivedOrderRow": {
          "default": {
            "vatRateId": "02100X0000"
          }
        }
    },
    "iGate": {
        "enabled": false,
        "baseUrl": "https://igate.abra.eu/",
        "userPrefix": "Uživatelé G4/",
        "firmsDetail1Url": "app/crm_watch/crm_prehled_01",
        "firmsDetail2Url": "app/crm_watch/crm_prehled_02",
        "firmsDetail3Url": "app/crm_watch/crm_prehled_03",
        "firmsDetail4Url": "app/crm_watch/crm_prehled_04"
    },
    "featureTags": {
        "crm": true,
        "catalog": true,
        "holidays": false,
        "communications": true,
        "tasks": false,
        "receivedOrders": true,
        "baskets": false,
        "fulltext": false
    }
}
