{
    "version": "10",
    "common": {
        "api": {
            "url": "http://82.202.105.67:8080/igx/rest",
            "authorization": 0
        },
        "title": "ABRA (DEMO CH) CRM"
    },
    "notifications": {
        "proxy": "http://gcm-http.hera.abra-solutions.eu/index.php",
        "topic": "notifications-abrach-demo"
    },
    "crm": {
        "app": {
          "languages": [
            {
              "id": "cs",
              "value": "Česky"
            },
            {
              "id": "de",
              "value": "Deutsch"
            },
            {
              "id": "en",
              "value": "English"
            }
          ],
          "language": "de",
          "extension": {
            "name": "",
            "model": ""
          }
        },
        "crmActivity": {
            "filters": {
                "activityType": [
                    "2000000101"
                ]
            },
            "statuses": [
                {
                    "id": 0,
                    "value": "Waiting"
                },
                {
                    "id": 1,
                    "value": "In progress"
                },
                {
                    "id": 2,
                    "value": "Closed"
                }
            ],
            "default": {
                "status": 1
            },
            "crmActivityQueueKinds": [
                {
                    "code": "VC",
                    "id": "1000000101",
                    "name": "Verkaufschance",
                    "kind": 1
                },
                {
                    "code": "KB",
                    "id": "1100000101",
                    "name": "Kindenbesuch",
                    "kind": 2
                },
                {
                    "code": "TA",
                    "id": "210000101",
                    "name": "Telefon/Anruf",
                    "kind": 2
                },
                {
                    "code": "VUK",
                    "id": "2V00000101",
                    "name": "Úkol pro vedoucí",
                    "kind": 4
                }
            ]
        },
        "opportunity": {
            "default": {
                "activityTypeId": "",
                "actQueueId": "",
                "productId": "1000000101"
            },
            "filters": {
                "crmActivityType": [
                    {
                        "key": "code",
                        "value": "VC"
                    }
                ],
                "crmActivityProcess": [
                    {
                        "key": "code",
                        "value": "000"
                    }
                ],
                "crmActivityQueue": [
                    {
                        "key": "code",
                        "value": "VC"
                    }
                ],
                "crmActivityArea": [
                    {
                        "key": "code",
                        "value": "VA"
                    }
                ],
                "product": [
                    {
                        "key": "hidden",
                        "value": false
                    }
                ]
            }
        },
        "opportunities": {
            "filters": [
                {
                    "key": "activitytype_id.code",
                    "value": "VC",
                    "operator": 0
                }
            ]
        },
        "communications": {
            "filters": [
                {
                    "key": "activitytype_id.code",
                    "value": "KB",
                    "operator": 0
                }
            ],
            "statuses": [
                {
                    "key": 0,
                    "value": "Planned",
                    "operator": 0
                },
                {
                    "key": 1,
                    "value": "Accepted",
                    "operator": 0
                },
                {
                    "key": 2,
                    "value": "Closed",
                    "operator": 0
                }
            ],
            "timeView": [
                {
                    "id": 1,
                    "titleI18n": "communications.filters.today"
                },
                {
                    "id": 2,
                    "titleI18n": "communications.filters.this-week"
                },
                {
                    "id": 3,
                    "titleI18n": "communications.filters.next"
                },
                {
                    "id": 4,
                    "titleI18n": "communications.filters.all"
                }
            ]
        },
        "communication": {
            "default": {
                "activityAreaId": "2000000101",
                "activityTypeId": "1100000101",
                "actQueueId": "1100000101",
                "status": 0,
                "statusClosed": 2
            }
        },
        "holidays": {
            "filters": [
                {
                    "key": "actqueue_id.code",
                    "value": "DO",
                    "operator": 0
                }
            ]
        },
        "tasks": {
            "filters": [
                {
                    "key": "activitytype_id.code",
                    "value": "JUKOL,VUKOL",
                    "operator": 1
                }
            ],
            "statuses": [
                {
                    "key": 0,
                    "value": "Neřešeno",
                    "operator": 0
                },
                {
                    "key": 1,
                    "value": "Potvrzené",
                    "operator": 0
                },
                {
                    "key": 2,
                    "value": "Uzavřeno",
                    "operator": 0
                }
            ],
            "timeView": [
                {
                    "id": 1,
                    "titleI18n": "communications.filters.today"
                },
                {
                    "id": 2,
                    "titleI18n": "communications.filters.this-week"
                },
                {
                    "id": 3,
                    "titleI18n": "communications.filters.next"
                },
                {
                    "id": 4,
                    "titleI18n": "communications.filters.all"
                }
            ]
        },
        "task": {
            "default": {
                "activityAreaId": "1000000101",
                "activityTypeId": "3S00000101",
                "actQueueId": "2V00000101",
                "status": 0
            },
            "filters": {
            }
        },
        "firms": {
            "filters": [
                {
                    "key": "hidden",
                    "value": false,
                    "operator": 0
                },
                {
                    "key": "firm_id",
                    "value": null,
                    "operator": 0
                }
            ]
        },
        "firm": {
        },
        "basket": {
            "default": {
                "periodId": "",
                "transportationTypeId": "",
                "paymentTypeId": "",
				"pricesWithVAT": true
            },
            "filters": {
                "docQueues": [
                    {
                        "key": "documenttype",
                        "value": "RO",
                        "operator": 0
                    }
                ]
            },
            "item": {
                "filters": {
                    "divisions": [
                    ]
                }
            },
            "isNote": false
        },
        "receivedOrders": {
            "statuses": [
                {
                    "id": 0,
                    "titleI18n": "receivedOrders.filters.all"
                },
                {
                    "id": 1,
                    "titleI18n": "receivedOrders.filters.delivered"
                },
                {
                    "id": 2,
                    "titleI18n": "receivedOrders.filters.undelivered"
                }
            ]
        },
        "storeCards": {
          "default": {
            "storeId": ""
          }
        },
        "receivedOrderRow": {
          "default": {
            "vatRateId": ""
          }
        }
    },
    "iGate": {
        "enabled": true,
        "baseUrl": "http://82.202.105.67:8080/igate/",
        "userPrefix": "ABRA G4/",
        "firmsDetail1Url": "app/crm/crm_prehled_01",
        "firmsDetail2Url": "app/crm/crm_prehled_02",
        "firmsDetail3Url": "app/crm/crm_prehled_03",
        "firmsDetail4Url": "app/crm/crm_prehled_04"
    },
    "featureTags": {
        "crm": true,
        "catalog": false,
        "holidays": false,
        "communications": true,
        "tasks": false,
        "receivedOrders": true,
        "baskets": false,
        "fulltext": false
    }
}
