{
    "version": "11",
    "common": {
        "api": {
            "url": "http://85.132.176.4:8080/igx/rest",
            "authorization": 0
        },
        "title": "ABRA CRM"
    },
    "notifications": {
        "proxy": "http://gcm-http.hera.abra-solutions.eu/index.php",
        "topic": "notifications-designtrade"
    },
    "crm": {
        "app": {
          "languages": [
            {
              "id": "cs",
              "value": "Česky"
            },
            {
              "id": "de",
              "value": "Deutsch"
            },
            {
              "id": "en",
              "value": "English"
            }
          ],
          "language": "cs",
          "extension": null
        },
        "crmActivity": {
            "filters": {
                "activityType": [
                    "1700000101"
                ]
            },
            "statuses": [
                {
                    "id": 0,
                    "value": "Neřešeno"
                },
                {
                    "id": 1,
                    "value": "V procesu"
                },
                {
                    "id": 2,
                    "value": "Uzavřeno"
                }
            ],
            "default": {
                "status": 1
            },
            "crmActivityQueueKinds": [
                {
                    "code": "TEL",
                    "id": "1100000101",
                    "name": "Telefon",
                    "kind": 2
                },
                {
                    "code": "OS",
                    "id": "1200000101",
                    "name": "Osobní schůzka",
                    "kind": 2
                },
                {
                    "code": "PN",
                    "id": "2200000101",
                    "name": "První návšteva",
                    "kind": 2
                },
                {
                    "code": "EC",
                    "id": "3200000101",
                    "name": "Emailová komunikace",
                    "kind": 2
                }
                
            ]
        },
        "opportunity": {
            "default": {
                "activityTypeId": "2200000101",
                "activityAreaId": "1100000101"
            },
            "filters": {
                "crmActivityType": [
                    {
                        "key": "code",
                        "value": "PRI"
                    }
                ],
                "crmActivityProcess": [
                    {
                        "key": "code",
                        "value": "000"
                    }
                ],
                "crmActivityQueue": [
                    {
                        "key": "code",
                        "value": "JED"
                    }
                ],
                "crmActivityArea": [
                    {
                        "key": "code",
                        "value": "SPOL"
                    }
                ],
                "division": [

                ],
                "product": [
                    {
                        "key": "hidden",
                        "value": false
                    }
                ]
            }
        },
        "opportunities": {
            "filters": [
                {
                    "key": "activitytype_id.code",
                    "value": "PRI",
                    "operator": 0
                }
            ]
        },
        "communications": {
            "filters": [
                {
                    "key": "activitytype_id.code",
                    "value": "KOM",
                    "operator": 0
                }
            ],
            "statuses": [
                {
                    "key": 0,
                    "value": "Naplánované",
                    "operator": 0
                },
                {
                    "key": 1,
                    "value": "Potvrzené",
                    "operator": 0
                },
                {
                    "key": 2,
                    "value": "Uzavřené",
                    "operator": 0
                }
            ],
            "timeView": [
                {
                    "id": 1,
                    "titleI18n": "communications.filters.today"
                },
                {
                    "id": 2,
                    "titleI18n": "communications.filters.this-week"
                },
                {
                    "id": 3,
                    "titleI18n": "communications.filters.next"
                },
                {
                    "id": 4,
                    "titleI18n": "communications.filters.all"
                }
            ]
        },
        "communication": {
            "default": {
                "activityAreaId": "1000000101",
                "activityTypeId": "1700000101",
                "status": 0,
                "statusClosed": 2
            }
        },
        "holidays": {
            "filters": [
                {
                    "key": "actqueue_id.code",
                    "value": "DO",
                    "operator": 0
                }
            ]
        },
        "tasks": {
            "filters": [
                {
                    "key": "activitytype_id.code",
                    "value": "JUKOL,VUKOL",
                    "operator": 1
                }
            ],
            "statuses": [
                {
                    "key": 0,
                    "value": "Neřešeno",
                    "operator": 0
                },
                {
                    "key": 1,
                    "value": "Potvrzené",
                    "operator": 0
                },
                {
                    "key": 2,
                    "value": "Uzavřeno",
                    "operator": 0
                }
            ],
            "timeView": [
                {
                    "id": 1,
                    "titleI18n": "communications.filters.today"
                },
                {
                    "id": 2,
                    "titleI18n": "communications.filters.this-week"
                },
                {
                    "id": 3,
                    "titleI18n": "communications.filters.next"
                },
                {
                    "id": 4,
                    "titleI18n": "communications.filters.all"
                }
            ]
        },
        "task": {
            "default": {
                "activityAreaId": "1000000101",
                "activityTypeId": "3S00000101",
                "actQueueId": "2V00000101",
                "status": 0
            },
            "filters": {
            }
        },
        "firms": {
            "filters": [
                {
                    "key": "hidden",
                    "value": false,
                    "operator": 0
                },
                {
                    "key": "firm_id",
                    "value": null,
                    "operator": 0
                }
            ]
        },
        "firm": {
        },
        "basket": {
            "default": {
                "periodId": "1X00000101",
                "transportationTypeId": "00000P1000",
                "paymentTypeId": "1000000101",
                "busOrderId": null,
                "busTransactionId": null,
                "busProjectId": null,
                "divisionId": "1000000101",
                "docQueueId": "1Y00000101",
                "pricesWithVAT": false
            },
            "filters": {
                "docQueues": [
                    {
                        "key": "documenttype",
                        "value": "RO",
                        "operator": 0
                    }
                ]
            },
            "item": {
                "filters": {
                    "divisions": [
                    ]
                }
                
            },
            "isNote": false,
            "isDivision": false,
            "isBusProject": false,
            "isBusTransaction": false,
            "isBusOrder": false,
            "quickPicking": true
        },
        "receivedOrders": {
            "statuses": [
                {
                    "id": 0,
                    "titleI18n": "receivedOrders.filters.all"
                },
                {
                    "id": 1,
                    "titleI18n": "receivedOrders.filters.delivered"
                },
                {
                    "id": 2,
                    "titleI18n": "receivedOrders.filters.undelivered"
                }
            ]
        },
        "storeCards": {
            "default": {
                "storeId": "1000000101"
            }
        },
        "receivedOrderRow": {
          "default": {
            "vatRateId": "02100X0000"
          }
        }
    },
    "iGate": {
        "enabled": false,
        "baseUrl": "https://igate.abra.eu/",
        "userPrefix": "Uživatelé G4/",
        "firmsDetail1Url": "app/crm_watch/crm_prehled_01",
        "firmsDetail2Url": "app/crm_watch/crm_prehled_02",
        "firmsDetail3Url": "app/crm_watch/crm_prehled_03",
        "firmsDetail4Url": "app/crm_watch/crm_prehled_04"
    },
    "featureTags": {
        "crm": true,
        "catalog": true,
        "holidays": false,
        "communications": true,
        "tasks": false,
        "receivedOrders": true,
        "baskets": true,
        "fulltext": true
    }
}
