﻿{
  "version": "13",
  "common": {
    "api": {
      "url": "http://mcrm.nevsimal.cz:8080/igx/rest",
      "authorization": 0
    },
    "title": "ABRA CRM Nevšímal, a.s."
  },
  "notifications": {
    "proxy": "http://gcm-http.hera.abra-solutions.eu/index.php",
    "topic": "notifications-nevsimal"
  },
  "crm": {
    "app": {
      "languages": [
        {
          "id": "cs",
          "value": "Česky"
        },
        {
          "id": "de",
          "value": "Deutsch"
        },
        {
          "id": "en",
          "value": "English"
        }
      ],
      "language": "cs",
      "extension": {
        "name": "Nevsimal",
        "model": "Abracrm.Mobi.Models.Extensions.Nevsimal"
      }
    },
    "crmActivity": {
      "filters": {
        "activityType": [
          "1300000101",
          "1100000101",
          "1200000101",
          "2200000101",
          "2300000101"
        ]
      },
      "statuses": [
        {
          "id": 0,
          "value": "Neřešeno"
        },
        {
          "id": 1,
          "value": "V procesu"
        },
        {
          "id": 2,
          "value": "Uzavřeno"
        }
      ],
      "default": {
        "status": 1
      },
      "crmActivityQueueKinds": [
        {
          "code": "JE",
          "id": "1300000101",
          "name": "Jednání",
          "kind": 0
        },
        {
          "code": "PP",
          "id": "1400000101",
          "name": "Práce na projektu",
          "kind": 0
        },
        {
          "code": "SCH",
          "id": "3300000101",
          "name": "Schůzka",
          "kind": 0
        },
        {
          "code": "NS",
          "id": "3400000101",
          "name": "Neshody",
          "kind": 0
        },
        {
          "code": "OBP",
          "id": "2300000101",
          "name": "Obchodní příležitosti",
          "kind": 1
        },
        {
          "code": "KZ",
          "id": "2400000101",
          "name": "Komunikace na zakázkách",
          "kind": 2
        },
        {
          "code": "ZAD",
          "id": "1000000101",
          "name": "Žádost o dovolenou",
          "kind": 3
        },
        {
          "code": "DOV",
          "id": "2000000101",
          "name": "Dovolená",
          "kind": 3
        }
      ]
    },
    "opportunity": {
      "default": {
        "activityTypeId": "2200000101",
        "activityAreaId": "1100000101"
      },
      "filters": {
        "crmActivityType": [
          {
            "key": "code",
            "value": "PRIL"
          }
        ],
        "crmActivityProcess": [],
        "crmActivityQueue": [
          {
            "key": "code",
            "value": "OBP"
          }
        ],
        "crmActivityArea": [
          {
            "key": "code",
            "value": "SPOL"
          }
        ],
        "division": [],
        "product": [
          {
            "key": "hidden",
            "value": false
          }
        ]
      }
    },
    "opportunities": {
      "filters": [
        {
          "key": "activitytype_id.code",
          "value": "PRIL",
          "operator": 0
        }
      ]
    },
    "communications": {
      "filters": [
        {
          "key": "activitytype_id.code",
          "value": "KOM",
          "operator": 0
        }
      ],
      "statuses": [
        {
          "key": 0,
          "value": "Naplánované",
          "operator": 0
        },
        {
          "key": 1,
          "value": "Potvrzené",
          "operator": 0
        },
        {
          "key": 2,
          "value": "Uzavřené",
          "operator": 0
        }
      ],
      "timeView": [
        {
          "id": 1,
          "titleI18n": "communications.filters.today"
        },
        {
          "id": 2,
          "titleI18n": "communications.filters.this-week"
        },
        {
          "id": 3,
          "titleI18n": "communications.filters.next"
        },
        {
          "id": 4,
          "titleI18n": "communications.filters.all"
        }
      ]
    },
    "communication": {
      "default": {
        "activityAreaId": "1100000101",
        "activityTypeId": "1200000101",
        "status": 0,
        "statusClosed": 2
      }
    },
    "holidays": {
      "filters": [
        {
          "key": "actqueue_id.code",
          "value": "DOV",
          "operator": 0
        }
      ]
    },
    "tasks": {
      "filters": [],
      "statuses": [
        {
          "key": 0,
          "value": "Neřešeno",
          "operator": 0
        },
        {
          "key": 1,
          "value": "Potvrzené",
          "operator": 0
        },
        {
          "key": 2,
          "value": "Uzavřeno",
          "operator": 0
        }
      ],
      "timeView": [
        {
          "id": 1,
          "titleI18n": "communications.filters.today"
        },
        {
          "id": 2,
          "titleI18n": "communications.filters.this-week"
        },
        {
          "id": 3,
          "titleI18n": "communications.filters.next"
        },
        {
          "id": 4,
          "titleI18n": "communications.filters.all"
        }
      ]
    },
    "task": {
      "default": {
        "activityAreaId": "",
        "activityTypeId": "",
        "actQueueId": "",
        "status": 0
      },
      "filters": {}
    },
    "firms": {
      "filters": [
        {
          "key": "hidden",
          "value": false,
          "operator": 0
        },
        {
          "key": "firm_id",
          "value": null,
          "operator": 0
        }
      ]
    },
    "firm": {},
    "basket": {
      "default": {
        "periodId": "",
        "transportationTypeId": "",
        "paymentTypeId": "",
        "busOrderId": "",
        "busTransactionId": "",
        "busProjectId": "",
        "divisionId": "",
        "docQueueId": "",
		"pricesWithVAT": true
      },
      "filters": {
        "docQueues": [
          {
            "key": "documenttype",
            "value": "RO",
            "operator": 0
          }
        ]
      },
      "item": {
        "filters": {
          "divisions": []
        }
      },
      "isNote": false,
      "isDivision": false,
      "isBusProject": false,
      "isBusTransaction": false,
      "isBusOrder": false
    },
    "receivedOrders": {
      "statuses": [
        {
          "id": 0,
          "titleI18n": "receivedOrders.filters.all"
        },
        {
          "id": 1,
          "titleI18n": "receivedOrders.filters.delivered"
        },
        {
          "id": 2,
          "titleI18n": "receivedOrders.filters.undelivered"
        }
      ]
    },
    "storeCards": {
      "default": {
        "storeId": ""
      }
    },
    "receivedOrderRow": {
      "default": {
        "vatRateId": ""
      }
    }
  },
  "iGate": {
    "enabled": false,
    "baseUrl": "https://192.168.68.242:8080/abrabi/",
    "userPrefix": "Uživatelé G4/",
    "firmsDetail1Url": "app/crm_watch/crm_prehled_01",
    "firmsDetail2Url": "app/crm_watch/crm_prehled_02",
    "firmsDetail3Url": "app/crm_watch/crm_prehled_03",
    "firmsDetail4Url": "app/crm_watch/crm_prehled_04"
  },
  "featureTags": {
    "crm": true,
    "catalog": false,
    "holidays": true,
    "communications": true,
    "tasks": false,
    "receivedOrders": false,
    "baskets": false,
    "fulltext": true
  }
}